// ################################################ //

// TODO: Imagem banner
// TODO: Ebook
// TODO: Imagens e textos submenus
// TODO: Imagens e textos dicas e tutoriais
// TODO: Textos categorias
// TODO: Link para redes sociais

// TODO: Email para envio do formulário
idr@idrconsultoria.com.br
contato@idrconsultoria.com.br

// ################################################ //

// Analytics
// Remover arquivos de info


